JSON Vignette
…
# try to get the class of each column, but...
sapply(json_data, class)

## Engine Information     Identification         Dimensions 
##       "data.frame"       "data.frame"       "data.frame" 
##   Fuel Information 
##       "data.frame"

The actual object is actually a collection of data frames. This is where the flatten() function in jsonlite comes in:

# also convert to a tibble to make printing neater
actual_df <- tbl_df(jsonlite::flatten(json_data))
actual_df

## # A tibble: 5,076 x 18
##    `Engine Informa `Engine Informa `Engine Informa `Engine Informa
##    <chr>            <chr>            <lgl>                       <int>
##  1 6 Speed Automat Audi 3.2L 6 cyl FALSE                           6
##  2 6 Speed Automat Audi 2.0L 4 cyl FALSE                           6
##  3 6 Speed Manual   Audi 2.0L 4 cyl FALSE                           6
##  4 6 Speed Automat Audi 2.0L 4 cyl FALSE                           6
##  5 6 Speed Automat Audi 2.0L 4 cyl FALSE                           6
##  6 6 Speed Manual   Audi 3.2L 6 cyl FALSE                           6
##  7 6 Speed Automat Audi 3.2L 6 cyl FALSE                           6
##  8 6 Speed Automat Audi 4.2L 8 cyl FALSE                           6
##  9 6 Speed Automat Audi 3.6L 6 cyl FALSE                           6
## 10 6 Speed Manual   Audi 2.0L 4 cyl FALSE                           6
## #  with 5,066 more rows, and 14 more variables: `Engine
## #   Information.Driveline` <chr>, `Engine Information.Engine
## #   Statistics.Horsepower` <int>, `Engine Information.Engine
## #   Statistics.Torque` <int>, Identification.Make <chr>,
## #   `Identification.Model Year` <chr>, Identification.ID <chr>,
## #   Identification.Classification <chr>, Identification.Year <int>,
## #   Dimensions.Width <int>, Dimensions.Length <int>,
## #   Dimensions.Height <int>, `Fuel Information.Highway mpg` <int>, `Fuel
## #   Information.City mph` <int>, `Fuel Information.Fuel Type` <chr>
…
